﻿2018-03-02T11:08:49.0570407+01:00;VSTestExecutionThread;Info;SpecFlow+Runner execution started
2018-03-02T11:08:49.2225384+01:00;VSTestExecutionThread;Info;SpecRun Evaluation Mode: Please purchase at http://www.specflow.org/plus to remove test execution delay.
2018-03-02T11:08:49.2230336+01:00;VSTestExecutionThread;Info;SpecRun: running tests in C:\Users\krzysztof.pienkosz\Documents\Visual Studio 2013\Projects\Co-op\Co-op.Ecommerce\Co-op.Ecommerce\bin\Debug\Co-op.Ecommerce.dll
2018-03-02T11:08:49.2235353+01:00;VSTestExecutionThread;Info;Profile: Default
2018-03-02T11:08:56.3108092+01:00;VSTestExecutionThread;Info;Discovering target: Default
2018-03-02T11:08:56.3118102+01:00;VSTestExecutionThread;Info;Discovering tests from assembly: C:\Users\krzysztof.pienkosz\Documents\Visual Studio 2013\Projects\Co-op\Co-op.Ecommerce\Co-op.Ecommerce\bin\Debug\Co-op.Ecommerce.dll
2018-03-02T11:10:09.4346571+01:00;VSTestExecutionThread;Info;Log file: file:///C:\Users\krzysztof.pienkosz\Documents\Visual%20Studio%202013\Projects\Co-op\Co-op.Ecommerce\TestResults\Co-op.Ecommerce_Default_2018-03-02T110849.log
2018-03-02T11:10:09.4361546+01:00;VSTestExecutionThread;Info;SpecFlow+Runner execution finished
2018-03-02T11:10:19.5102093+01:00;VSTestExecutionThread;Info;SpecFlow+Runner execution started
2018-03-02T11:10:19.5432095+01:00;VSTestExecutionThread;Info;SpecRun Evaluation Mode: Please purchase at http://www.specflow.org/plus to remove test execution delay.
2018-03-02T11:10:19.5437080+01:00;VSTestExecutionThread;Info;SpecRun: running tests in C:\Users\krzysztof.pienkosz\Documents\Visual Studio 2013\Projects\Co-op\Co-op.Ecommerce\Co-op.Ecommerce\bin\Debug\Co-op.Ecommerce.dll
2018-03-02T11:10:19.5442060+01:00;VSTestExecutionThread;Info;Profile: Default
2018-03-02T11:10:31.5501929+01:00;VSTestExecutionThread;Info;Discovering target: Default
2018-03-02T11:10:31.5506922+01:00;VSTestExecutionThread;Info;Discovering tests from assembly: C:\Users\krzysztof.pienkosz\Documents\Visual Studio 2013\Projects\Co-op\Co-op.Ecommerce\Co-op.Ecommerce\bin\Debug\Co-op.Ecommerce.dll
2018-03-02T11:10:56.6785347+01:00;VSTestExecutionThread;Info;Log file: file:///C:\Users\krzysztof.pienkosz\Documents\Visual%20Studio%202013\Projects\Co-op\Co-op.Ecommerce\TestResults\Co-op.Ecommerce_Default_2018-03-02T111019.log
2018-03-02T11:10:56.6795353+01:00;VSTestExecutionThread;Info;SpecFlow+Runner execution finished
2018-03-02T11:11:05.4458228+01:00;VSTestExecutionThread;Info;SpecFlow+Runner execution started
2018-03-02T11:11:05.4913199+01:00;VSTestExecutionThread;Info;SpecRun Evaluation Mode: Please purchase at http://www.specflow.org/plus to remove test execution delay.
2018-03-02T11:11:05.4923229+01:00;VSTestExecutionThread;Info;SpecRun: running tests in C:\Users\krzysztof.pienkosz\Documents\Visual Studio 2013\Projects\Co-op\Co-op.Ecommerce\Co-op.Ecommerce\bin\Debug\Co-op.Ecommerce.dll
2018-03-02T11:11:05.4933313+01:00;VSTestExecutionThread;Info;Profile: Default
2018-03-02T11:11:17.5019217+01:00;Thread#15;Info;Discovering target: Default
2018-03-02T11:11:17.5028862+01:00;Thread#15;Info;Discovering tests from assembly: C:\Users\krzysztof.pienkosz\Documents\Visual Studio 2013\Projects\Co-op\Co-op.Ecommerce\Co-op.Ecommerce\bin\Debug\Co-op.Ecommerce.dll
Appdomain Disposed
Test Suite Dump
#0: Co-op.Ecommerce/Default - 
#1: Default - 
#2: Co-op.Ecommerce - 
#8: OnlineMemorialJourney - 
#9: Online Memorial Book Step 1 - Delivery details - TestAssembly:Co-op.Ecommerce/Feature:OnlineMemorialJourney/Scenario:Online+Memorial+Book+Step+1+-+Delivery+details
End: Test Suite Dump
Thread#0:Scheduler: get next test for thread 0
Thread#:Scheduler: testitem #9 from normal test queue 
Thread#0:Scheduler: considering testitem #9 for thread 0
Thread#0:TestItem#9:testItemMatchesCurrentTestThread:UnSpecific
Thread#0:TestItem#9:runsOnOneOtherThreadSpecific:False
Thread#0:TestItem#9:runsOnOneOtherThreadUnspecific:False
Thread#0:Scheduler: using testitem #9 for thread 0
Thread#0:Scheduler: Test #9 is scheduled for thread
Thread#0:Scheduler: with testItemExecutionIndex 0
Thread #0: creating new test thread executor for Co-op.Ecommerce, Version=1.0.0.0, Culture=neutral, PublicKeyToken=null (target: Default)
Loading SpecRun type 'TechTalk.SpecRun.Framework.TestAssemblyExecutor' from: C:\Users\krzysztof.pienkosz\AppData\Local\Temp\VisualStudioTestExplorerExtensions\SpecRun.Runner.1.6.2\tools\TechTalk.SpecRun.Framework.Executor.dll
Thread#0: Test #9/0 is started on thread #0
Thread#0:T:-> Using app.config
Thread#0:B:Given I am on the first step of Online Memorial
Thread#0:T:done: OnlineMemorialJourneySteps.GivenIAmOnTheFirstStepOfOnlineMemorial() (6,2s)
Thread#0:B:And I have entered all delivery details
Thread#0:T:done: OnlineMemorialJourneySteps.GivenIHaveEnteredAllDeliveryDetails() (8,2s)
Thread#0:B:When I have clicked Continue button on step 1
Thread#0:T:done: OnlineMemorialJourneySteps.WhenIHaveClickedContinueButtonOnStep(1) (4,2s)
Thread#0:B:Then I should be redirected to Step 2 - Payment details
Thread#0:T:error:   Expected: True
Thread#0:T:  But was:  False
Thread#0:TestItem#9:Scheduler: reschedule tests for testitem #9
Thread#0:Scheduler: get next test for thread 0
Thread#:Scheduler: dequeuing a rescheduled testitem: #9
Thread#0:Scheduler: considering testitem #9 for thread 0
Thread#0:TestItem#9:testItemMatchesCurrentTestThread:UnSpecific
Thread#0:TestItem#9:runsOnOneOtherThreadSpecific:False
Thread#0:TestItem#9:runsOnOneOtherThreadUnspecific:False
Thread#0:Scheduler: using testitem #9 for thread 0
Thread#0:Scheduler: Test #9 is scheduled for thread
Thread#0:Scheduler: with testItemExecutionIndex 1
Thread#0: Test #9/0 is finished on thread #0 as Failed within 23,4254073 seconds
Thread#0: Test #9/1 is started on thread #0
Thread#0:B:Given I am on the first step of Online Memorial
Thread#0:T:done: OnlineMemorialJourneySteps.GivenIAmOnTheFirstStepOfOnlineMemorial() (6,2s)
Thread#0:B:And I have entered all delivery details
Thread#0:T:done: OnlineMemorialJourneySteps.GivenIHaveEnteredAllDeliveryDetails() (8,4s)
Thread#0:B:When I have clicked Continue button on step 1
Thread#0:T:done: OnlineMemorialJourneySteps.WhenIHaveClickedContinueButtonOnStep(1) (4,5s)
Thread#0:B:Then I should be redirected to Step 2 - Payment details
Thread#0:T:error:   Expected: True
Thread#0:T:  But was:  False
Thread#0:Scheduler: get next test for thread 0
Thread#:Scheduler: dequeuing a rescheduled testitem: #9
Thread#0:Scheduler: considering testitem #9 for thread 0
Thread#0:TestItem#9:testItemMatchesCurrentTestThread:UnSpecific
Thread#0:TestItem#9:runsOnOneOtherThreadSpecific:False
Thread#0:TestItem#9:runsOnOneOtherThreadUnspecific:False
Thread#0:Scheduler: using testitem #9 for thread 0
Thread#0:Scheduler: Test #9 is scheduled for thread
Thread#0:Scheduler: with testItemExecutionIndex 2
Thread#0: Test #9/1 is finished on thread #0 as Failed within 23,8074166 seconds
Thread#0: Test #9/2 is started on thread #0
Thread#0:B:Given I am on the first step of Online Memorial
Thread#0:T:done: OnlineMemorialJourneySteps.GivenIAmOnTheFirstStepOfOnlineMemorial() (4,0s)
Thread#0:B:And I have entered all delivery details
Thread#0:T:error: chrome not reachable
Thread#0:T:  (Session info: chrome=64.0.3282.186)
Thread#0:T:  (Driver info: chromedriver=2.32.498550 (9dec58e66c31bcc53a9ce3c7226f0c1c5810906a),platform=Windows NT 10.0.15063 x86_64) (100)
Thread#0:B:When I have clicked Continue button on step 1
Thread#0:T:skipped because of previous errors
Thread#0:B:Then I should be redirected to Step 2 - Payment details
Thread#0:T:skipped because of previous errors
Thread#0:Scheduler: get next test for thread 0
Thread#:Scheduler: at the end of normal test queue
Thread#0:Scheduler: enumerator for thread is at end
Thread#0:Scheduler: No more tests for thread
Thread#0: Test #9/2 is finished on thread #0 as Failed within 12,3835702 seconds
Appdomain Disposed
Thread#-1:Scheduler: get next test for thread -1
Thread#:Scheduler: at the end of normal test queue
Thread#-1:Scheduler: enumerator for thread is at end
Total: 1 (test executions: 3)
Succeeded: 0
Ignored: 0
Pending: 0
Skipped: 0
Failed: 1
